
{
  "networks": {
      "mainnet": {
              "contracts": {
                "	_FreeDom": {"name":"FreeDomToken", "blockchain_address":"0x8297D4EA0d2B9389681Ca7cDB527bf5787a5799D"}
              }
            },
      "staging": {
              "contracts": {
                "	_FreeDom": {"name":"FreeDomToken", "blockchain_address":"0x176762d66f15ccdd0d3a1dc13040d794c9c93776"}
              }
            },
      "testnet": {
              "contracts": {
                "	_FreeDom": {"name":"FreeDomToken", "blockchain_address":"0x9d2cc383e677292ed87f63586086cff62a009010"}
              }
            }
    }
}
